<?xml version="1.0" encoding="UTF-8" standalone="no"?>
<!DOCTYPE svg PUBLIC "-//W3C//DTD SVG 1.1//EN" "http://www.w3.org/Graphics/SVG/1.1/DTD/svg11.dtd">
<svg width="100%" height="100%" viewBox="0 0 1914 362" version="1.1" xmlns="http://www.w3.org/2000/svg" xmlns:xlink="http://www.w3.org/1999/xlink" xml:space="preserve" xmlns:serif="http://www.serif.com/" style="fill-rule:evenodd;clip-rule:evenodd;stroke-linejoin:round;stroke-miterlimit:2;" preserveAspectRatio="none">
    <g transform="matrix(1,0,0,1,5.5262,-605.303)">
        <clipPath id="_clip1">
            <rect x="-5.526" y="605.303" width="1913.43" height="361.697"/>
        </clipPath>
        <g clip-path="url(#_clip1)">
            <path d="M2794,774C2794,774 2659,792 2397,686C2109.48,569.67 2013.68,629.51 1737,701C1528,755 1238.25,793.49 1065,799C845,806 784.97,789.356 460.97,677.356C246.29,603.146 157,701 -75,701C-307,701 -594,741 -594,741L-594,967L2794,967L2794,774Z" style="fill:url(#_Linear2);fill-rule:nonzero;"/>
        </g>
    </g>
    <defs>
        <linearGradient id="_Linear2" x1="0" y1="0" x2="1" y2="0" gradientUnits="userSpaceOnUse" gradientTransform="matrix(8.82113e-15,144.06,-144.06,8.82113e-15,1100,699)"><stop offset="0" style="stop-color:rgb(46,161,128);stop-opacity:1"/><stop offset="0.44" style="stop-color:rgb(44,150,123);stop-opacity:1"/><stop offset="0.81" style="stop-color:rgb(35,112,105);stop-opacity:1"/><stop offset="1" style="stop-color:rgb(30,90,95);stop-opacity:1"/></linearGradient>
    </defs>
</svg>
